<svg width="65" height="66" viewBox="0 0 65 66" fill="none" xmlns="http://www.w3.org/2000/svg">
<circle cx="32.5" cy="32.5039" r="31.5" stroke="#62A1CE" stroke-width="2"/>
<path d="M39.25 19.0039H25.75C22.0221 19.0039 19 22.026 19 25.7539V39.2539C19 42.9818 22.0221 46.0039 25.75 46.0039H39.25C42.9779 46.0039 46 42.9818 46 39.2539V25.7539C46 22.026 42.9779 19.0039 39.25 19.0039Z" stroke="#62A1CE" stroke-width="2.2" stroke-linecap="round" stroke-linejoin="round"/>
<path d="M37.8998 31.6538C38.0664 32.7773 37.8745 33.9248 37.3514 34.933C36.8283 35.9412 36.0005 36.7587 34.986 37.2694C33.9714 37.78 32.8217 37.9578 31.7003 37.7773C30.5789 37.5969 29.543 37.0674 28.7398 36.2643C27.9367 35.4611 27.4072 34.4252 27.2268 33.3038C27.0463 32.1824 27.2241 31.0327 27.7347 30.0181C28.2454 29.0036 29.063 28.1759 30.0711 27.6527C31.0793 27.1296 32.2268 26.9377 33.3503 27.1043C34.4963 27.2743 35.5573 27.8083 36.3766 28.6275C37.1958 29.4468 37.7299 30.5078 37.8998 31.6538Z" stroke="#62A1CE" stroke-width="2.2" stroke-linecap="round" stroke-linejoin="round"/>
<path d="M39.9248 25.0791H39.9348" stroke="#62A1CE" stroke-width="2.2" stroke-linecap="round" stroke-linejoin="round"/>
</svg>
